<svg version="1.1" id="Layer_1" xmlns:sketch="http://www.bohemiancoding.com/sketch/ns"
	 xmlns="http://www.w3.org/2000/svg" xmlns:xlink="http://www.w3.org/1999/xlink" x="0px" y="0px" viewBox="0 0 420 525"
	 style="enable-background:new 0 0 420 525;" xml:space="preserve">
<style type="text/css">
	.st0{fill:#D72330;}
</style>
<title>Slice 1</title>
<desc>Created with Sketch.</desc>
<g>
	<g sketch:type="MSPage">
		<g sketch:type="MSLayerGroup">
			<g sketch:type="MSShapeGroup">
				<g transform="translate(180.000000, 0.000000)">
					<g>
						<g>
							<path class="st0" d="M30,59l-9.3,28.5L35,92.2L30,59z"/>
							<g transform="translate(15.000000, 15.000000) scale(-1, 1) translate(-15.000000, -15.000000) ">
								<path class="st0" d="M0,59l-9.3,28.5L5,92.2L0,59z"/>
							</g>
						</g>
						<g>
							
								<g transform="translate(44.265848, 25.364745) rotate(72.000000) translate(-44.265848, -25.364745) translate(14.265848, 10.364745)">
								<g>
									<path class="st0" d="M86.1,18.2l-9.3,28.5l14.3,4.6L86.1,18.2z"/>
									<g transform="translate(15.000000, 15.000000) scale(-1, 1) translate(-15.000000, -15.000000) ">
										<path class="st0" d="M-56.1,18.2l-9.3,28.5l14.3,4.6L-56.1,18.2z"/>
									</g>
								</g>
							</g>
							
								<g transform="translate(38.816779, 42.135255) rotate(144.000000) translate(-38.816779, -42.135255) translate(8.816779, 27.135255)">
								<g>
									<path class="st0" d="M64.7-47.7l-9.3,28.5l14.3,4.6L64.7-47.7z"/>
									<g transform="translate(15.000000, 15.000000) scale(-1, 1) translate(-15.000000, -15.000000) ">
										<path class="st0" d="M-34.7-47.7l-9.3,28.5l14.3,4.6L-34.7-47.7z"/>
									</g>
								</g>
							</g>
						</g>
						<g transform="translate(30.000000, 30.000000) scale(-1, 1) translate(-30.000000, -30.000000) ">
							<g>
								
									<g transform="translate(44.265848, 25.364745) rotate(72.000000) translate(-44.265848, -25.364745) translate(14.265848, 10.364745)">
									<g>
										<path class="st0" d="M86.1,18.2l-9.3,28.5l14.3,4.6L86.1,18.2z"/>
										<g transform="translate(15.000000, 15.000000) scale(-1, 1) translate(-15.000000, -15.000000) ">
											<path class="st0" d="M-56.1,18.2l-9.3,28.5l14.3,4.6L-56.1,18.2z"/>
										</g>
									</g>
								</g>
								
									<g transform="translate(38.816779, 42.135255) rotate(144.000000) translate(-38.816779, -42.135255) translate(8.816779, 27.135255)">
									<g>
										<path class="st0" d="M64.7-47.7l-9.3,28.5l14.3,4.6L64.7-47.7z"/>
										<g transform="translate(15.000000, 15.000000) scale(-1, 1) translate(-15.000000, -15.000000) ">
											<path class="st0" d="M-34.7-47.7l-9.3,28.5l14.3,4.6L-34.7-47.7z"/>
										</g>
									</g>
								</g>
							</g>
						</g>
					</g>
				</g>
				<g transform="translate(180.000000, 360.000000)">
					<g>
						<g>
							<path class="st0" d="M30,59l-9.3,28.5L35,92.2L30,59z"/>
							<g transform="translate(15.000000, 15.000000) scale(-1, 1) translate(-15.000000, -15.000000) ">
								<path class="st0" d="M0,59l-9.3,28.5L5,92.2L0,59z"/>
							</g>
						</g>
						<g>
							
								<g transform="translate(44.265848, 25.364745) rotate(72.000000) translate(-44.265848, -25.364745) translate(14.265848, 10.364745)">
								<g>
									<path class="st0" d="M86.1,18.2l-9.3,28.5l14.3,4.6L86.1,18.2z"/>
									<g transform="translate(15.000000, 15.000000) scale(-1, 1) translate(-15.000000, -15.000000) ">
										<path class="st0" d="M-56.1,18.2l-9.3,28.5l14.3,4.6L-56.1,18.2z"/>
									</g>
								</g>
							</g>
							
								<g transform="translate(38.816779, 42.135255) rotate(144.000000) translate(-38.816779, -42.135255) translate(8.816779, 27.135255)">
								<g>
									<path class="st0" d="M64.7-47.7l-9.3,28.5l14.3,4.6L64.7-47.7z"/>
									<g transform="translate(15.000000, 15.000000) scale(-1, 1) translate(-15.000000, -15.000000) ">
										<path class="st0" d="M-34.7-47.7l-9.3,28.5l14.3,4.6L-34.7-47.7z"/>
									</g>
								</g>
							</g>
						</g>
						<g transform="translate(30.000000, 30.000000) scale(-1, 1) translate(-30.000000, -30.000000) ">
							<g>
								
									<g transform="translate(44.265848, 25.364745) rotate(72.000000) translate(-44.265848, -25.364745) translate(14.265848, 10.364745)">
									<g>
										<path class="st0" d="M86.1,18.2l-9.3,28.5l14.3,4.6L86.1,18.2z"/>
										<g transform="translate(15.000000, 15.000000) scale(-1, 1) translate(-15.000000, -15.000000) ">
											<path class="st0" d="M-56.1,18.2l-9.3,28.5l14.3,4.6L-56.1,18.2z"/>
										</g>
									</g>
								</g>
								
									<g transform="translate(38.816779, 42.135255) rotate(144.000000) translate(-38.816779, -42.135255) translate(8.816779, 27.135255)">
									<g>
										<path class="st0" d="M64.7-47.7l-9.3,28.5l14.3,4.6L64.7-47.7z"/>
										<g transform="translate(15.000000, 15.000000) scale(-1, 1) translate(-15.000000, -15.000000) ">
											<path class="st0" d="M-34.7-47.7l-9.3,28.5l14.3,4.6L-34.7-47.7z"/>
										</g>
									</g>
								</g>
							</g>
						</g>
					</g>
				</g>
				<g>
					<g transform="translate(0.000000, 180.000000)">
						<g>
							<g>
								<path class="st0" d="M30,59l-9.3,28.5L35,92.2L30,59z"/>
								<g transform="translate(15.000000, 15.000000) scale(-1, 1) translate(-15.000000, -15.000000) ">
									<path class="st0" d="M0,59l-9.3,28.5L5,92.2L0,59z"/>
								</g>
							</g>
							<g>
								
									<g transform="translate(44.265848, 25.364745) rotate(72.000000) translate(-44.265848, -25.364745) translate(14.265848, 10.364745)">
									<g>
										<path class="st0" d="M86.1,18.2l-9.3,28.5l14.3,4.6L86.1,18.2z"/>
										<g transform="translate(15.000000, 15.000000) scale(-1, 1) translate(-15.000000, -15.000000) ">
											<path class="st0" d="M-56.1,18.2l-9.3,28.5l14.3,4.6L-56.1,18.2z"/>
										</g>
									</g>
								</g>
								
									<g transform="translate(38.816779, 42.135255) rotate(144.000000) translate(-38.816779, -42.135255) translate(8.816779, 27.135255)">
									<g>
										<path class="st0" d="M64.7-47.7l-9.3,28.5l14.3,4.6L64.7-47.7z"/>
										<g transform="translate(15.000000, 15.000000) scale(-1, 1) translate(-15.000000, -15.000000) ">
											<path class="st0" d="M-34.7-47.7l-9.3,28.5l14.3,4.6L-34.7-47.7z"/>
										</g>
									</g>
								</g>
							</g>
							<g transform="translate(30.000000, 30.000000) scale(-1, 1) translate(-30.000000, -30.000000) ">
								<g>
									
										<g transform="translate(44.265848, 25.364745) rotate(72.000000) translate(-44.265848, -25.364745) translate(14.265848, 10.364745)">
										<g>
											<path class="st0" d="M86.1,18.2l-9.3,28.5l14.3,4.6L86.1,18.2z"/>
											<g transform="translate(15.000000, 15.000000) scale(-1, 1) translate(-15.000000, -15.000000) ">
												<path class="st0" d="M-56.1,18.2l-9.3,28.5l14.3,4.6L-56.1,18.2z"/>
											</g>
										</g>
									</g>
									
										<g transform="translate(38.816779, 42.135255) rotate(144.000000) translate(-38.816779, -42.135255) translate(8.816779, 27.135255)">
										<g>
											<path class="st0" d="M64.7-47.7l-9.3,28.5l14.3,4.6L64.7-47.7z"/>
											<g transform="translate(15.000000, 15.000000) scale(-1, 1) translate(-15.000000, -15.000000) ">
												<path class="st0" d="M-34.7-47.7l-9.3,28.5l14.3,4.6L-34.7-47.7z"/>
											</g>
										</g>
									</g>
								</g>
							</g>
						</g>
					</g>
					
						<g transform="translate(120.000000, 54.115427) rotate(216.000000) translate(-120.000000, -54.115427) translate(90.000000, 24.115427)">
						<g>
							<g>
								<path class="st0" d="M-4.7-47.7l-9.3,28.5l14.3,4.6L-4.7-47.7z"/>
								<g transform="translate(15.000000, 15.000000) scale(-1, 1) translate(-15.000000, -15.000000) ">
									<path class="st0" d="M34.7-47.7l-9.3,28.5l14.3,4.6L34.7-47.7z"/>
								</g>
							</g>
							<g>
								
									<g transform="translate(44.265848, 25.364745) rotate(72.000000) translate(-44.265848, -25.364745) translate(14.265848, 10.364745)">
									<g>
										<path class="st0" d="M-26.1,18.2l-9.3,28.5l14.3,4.6L-26.1,18.2z"/>
										<g transform="translate(15.000000, 15.000000) scale(-1, 1) translate(-15.000000, -15.000000) ">
											<path class="st0" d="M56.1,18.2l-9.3,28.5l14.3,4.6L56.1,18.2z"/>
										</g>
									</g>
								</g>
								
									<g transform="translate(38.816779, 42.135255) rotate(144.000000) translate(-38.816779, -42.135255) translate(8.816779, 27.135255)">
									<g>
										<path class="st0" d="M30,59l-9.3,28.5L35,92.2L30,59z"/>
										<g transform="translate(15.000000, 15.000000) scale(-1, 1) translate(-15.000000, -15.000000) ">
											<path class="st0" d="M0,59l-9.3,28.5L5,92.2L0,59z"/>
										</g>
									</g>
								</g>
							</g>
							<g transform="translate(30.000000, 30.000000) scale(-1, 1) translate(-30.000000, -30.000000) ">
								<g>
									
										<g transform="translate(44.265848, 25.364745) rotate(72.000000) translate(-44.265848, -25.364745) translate(14.265848, 10.364745)">
										<g>
											<path class="st0" d="M-4.7-47.7l-9.3,28.5l14.3,4.6L-4.7-47.7z"/>
											<g transform="translate(15.000000, 15.000000) scale(-1, 1) translate(-15.000000, -15.000000) ">
												<path class="st0" d="M34.7-47.7l-9.3,28.5l14.3,4.6L34.7-47.7z"/>
											</g>
										</g>
									</g>
									
										<g transform="translate(38.816779, 42.135255) rotate(144.000000) translate(-38.816779, -42.135255) translate(8.816779, 27.135255)">
										<g>
											<path class="st0" d="M-26.1,18.2l-9.3,28.5l14.3,4.6L-26.1,18.2z"/>
											<g transform="translate(15.000000, 15.000000) scale(-1, 1) translate(-15.000000, -15.000000) ">
												<path class="st0" d="M56.1,18.2l-9.3,28.5l14.3,4.6L56.1,18.2z"/>
											</g>
										</g>
									</g>
								</g>
							</g>
						</g>
					</g>
					
						<g transform="translate(54.115427, 120.000000) rotate(144.000000) translate(-54.115427, -120.000000) translate(24.115427, 90.000000)">
						<g>
							<g>
								<path class="st0" d="M64.7-47.7l-9.3,28.5l14.3,4.6L64.7-47.7z"/>
								<g transform="translate(15.000000, 15.000000) scale(-1, 1) translate(-15.000000, -15.000000) ">
									<path class="st0" d="M-34.7-47.7l-9.3,28.5l14.3,4.6L-34.7-47.7z"/>
								</g>
							</g>
							<g>
								
									<g transform="translate(44.265848, 25.364745) rotate(72.000000) translate(-44.265848, -25.364745) translate(14.265848, 10.364745)">
									<g>
										<path class="st0" d="M-4.7-47.7l-9.3,28.5l14.3,4.6L-4.7-47.7z"/>
										<g transform="translate(15.000000, 15.000000) scale(-1, 1) translate(-15.000000, -15.000000) ">
											<path class="st0" d="M34.7-47.7l-9.3,28.5l14.3,4.6L34.7-47.7z"/>
										</g>
									</g>
								</g>
								
									<g transform="translate(38.816779, 42.135255) rotate(144.000000) translate(-38.816779, -42.135255) translate(8.816779, 27.135255)">
									<g>
										<path class="st0" d="M-26.1,18.2l-9.3,28.5l14.3,4.6L-26.1,18.2z"/>
										<g transform="translate(15.000000, 15.000000) scale(-1, 1) translate(-15.000000, -15.000000) ">
											<path class="st0" d="M56.1,18.2l-9.3,28.5l14.3,4.6L56.1,18.2z"/>
										</g>
									</g>
								</g>
							</g>
							<g transform="translate(30.000000, 30.000000) scale(-1, 1) translate(-30.000000, -30.000000) ">
								<g>
									
										<g transform="translate(44.265848, 25.364745) rotate(72.000000) translate(-44.265848, -25.364745) translate(14.265848, 10.364745)">
										<g>
											<path class="st0" d="M-26.1,18.2l-9.3,28.5l14.3,4.6L-26.1,18.2z"/>
											<g transform="translate(15.000000, 15.000000) scale(-1, 1) translate(-15.000000, -15.000000) ">
												<path class="st0" d="M56.1,18.2l-9.3,28.5l14.3,4.6L56.1,18.2z"/>
											</g>
										</g>
									</g>
									
										<g transform="translate(38.816779, 42.135255) rotate(144.000000) translate(-38.816779, -42.135255) translate(8.816779, 27.135255)">
										<g>
											<path class="st0" d="M30,59l-9.3,28.5L35,92.2L30,59z"/>
											<g transform="translate(15.000000, 15.000000) scale(-1, 1) translate(-15.000000, -15.000000) ">
												<path class="st0" d="M0,59l-9.3,28.5L5,92.2L0,59z"/>
											</g>
										</g>
									</g>
								</g>
							</g>
						</g>
					</g>
					
						<g transform="translate(54.115427, 300.000000) rotate(72.000000) translate(-54.115427, -300.000000) translate(24.115427, 270.000000)">
						<g>
							<g>
								<path class="st0" d="M86.1,18.2l-9.3,28.5l14.3,4.6L86.1,18.2z"/>
								<g transform="translate(15.000000, 15.000000) scale(-1, 1) translate(-15.000000, -15.000000) ">
									<path class="st0" d="M-56.1,18.2l-9.3,28.5l14.3,4.6L-56.1,18.2z"/>
								</g>
							</g>
							<g>
								
									<g transform="translate(44.265848, 25.364745) rotate(72.000000) translate(-44.265848, -25.364745) translate(14.265848, 10.364745)">
									<g>
										<path class="st0" d="M64.7-47.7l-9.3,28.5l14.3,4.6L64.7-47.7z"/>
										<g transform="translate(15.000000, 15.000000) scale(-1, 1) translate(-15.000000, -15.000000) ">
											<path class="st0" d="M-34.7-47.7l-9.3,28.5l14.3,4.6L-34.7-47.7z"/>
										</g>
									</g>
								</g>
								
									<g transform="translate(38.816779, 42.135255) rotate(144.000000) translate(-38.816779, -42.135255) translate(8.816779, 27.135255)">
									<g>
										<path class="st0" d="M-4.7-47.7l-9.3,28.5l14.3,4.6L-4.7-47.7z"/>
										<g transform="translate(15.000000, 15.000000) scale(-1, 1) translate(-15.000000, -15.000000) ">
											<path class="st0" d="M34.7-47.7l-9.3,28.5l14.3,4.6L34.7-47.7z"/>
										</g>
									</g>
								</g>
							</g>
							<g transform="translate(30.000000, 30.000000) scale(-1, 1) translate(-30.000000, -30.000000) ">
								<g>
									
										<g transform="translate(44.265848, 25.364745) rotate(72.000000) translate(-44.265848, -25.364745) translate(14.265848, 10.364745)">
										<g>
											<path class="st0" d="M30,59l-9.3,28.5L35,92.2L30,59z"/>
											<g transform="translate(15.000000, 15.000000) scale(-1, 1) translate(-15.000000, -15.000000) ">
												<path class="st0" d="M0,59l-9.3,28.5L5,92.2L0,59z"/>
											</g>
										</g>
									</g>
									
										<g transform="translate(38.816779, 42.135255) rotate(144.000000) translate(-38.816779, -42.135255) translate(8.816779, 27.135255)">
										<g>
											<path class="st0" d="M86.1,18.2l-9.3,28.5l14.3,4.6L86.1,18.2z"/>
											<g transform="translate(15.000000, 15.000000) scale(-1, 1) translate(-15.000000, -15.000000) ">
												<path class="st0" d="M-56.1,18.2l-9.3,28.5l14.3,4.6L-56.1,18.2z"/>
											</g>
										</g>
									</g>
								</g>
							</g>
						</g>
					</g>
					
						<g transform="translate(120.000000, 365.884573) rotate(72.000000) translate(-120.000000, -365.884573) translate(90.000000, 335.884573)">
						<g>
							<g>
								<path class="st0" d="M86.1,18.2l-9.3,28.5l14.3,4.6L86.1,18.2z"/>
								<g transform="translate(15.000000, 15.000000) scale(-1, 1) translate(-15.000000, -15.000000) ">
									<path class="st0" d="M-56.1,18.2l-9.3,28.5l14.3,4.6L-56.1,18.2z"/>
								</g>
							</g>
							<g>
								
									<g transform="translate(44.265848, 25.364745) rotate(72.000000) translate(-44.265848, -25.364745) translate(14.265848, 10.364745)">
									<g>
										<path class="st0" d="M64.7-47.7l-9.3,28.5l14.3,4.6L64.7-47.7z"/>
										<g transform="translate(15.000000, 15.000000) scale(-1, 1) translate(-15.000000, -15.000000) ">
											<path class="st0" d="M-34.7-47.7l-9.3,28.5l14.3,4.6L-34.7-47.7z"/>
										</g>
									</g>
								</g>
								
									<g transform="translate(38.816779, 42.135255) rotate(144.000000) translate(-38.816779, -42.135255) translate(8.816779, 27.135255)">
									<g>
										<path class="st0" d="M-4.7-47.7l-9.3,28.5l14.3,4.6L-4.7-47.7z"/>
										<g transform="translate(15.000000, 15.000000) scale(-1, 1) translate(-15.000000, -15.000000) ">
											<path class="st0" d="M34.7-47.7l-9.3,28.5l14.3,4.6L34.7-47.7z"/>
										</g>
									</g>
								</g>
							</g>
							<g transform="translate(30.000000, 30.000000) scale(-1, 1) translate(-30.000000, -30.000000) ">
								<g>
									
										<g transform="translate(44.265848, 25.364745) rotate(72.000000) translate(-44.265848, -25.364745) translate(14.265848, 10.364745)">
										<g>
											<path class="st0" d="M30,59l-9.3,28.5L35,92.2L30,59z"/>
											<g transform="translate(15.000000, 15.000000) scale(-1, 1) translate(-15.000000, -15.000000) ">
												<path class="st0" d="M0,59l-9.3,28.5L5,92.2L0,59z"/>
											</g>
										</g>
									</g>
									
										<g transform="translate(38.816779, 42.135255) rotate(144.000000) translate(-38.816779, -42.135255) translate(8.816779, 27.135255)">
										<g>
											<path class="st0" d="M86.1,18.2l-9.3,28.5l14.3,4.6L86.1,18.2z"/>
											<g transform="translate(15.000000, 15.000000) scale(-1, 1) translate(-15.000000, -15.000000) ">
												<path class="st0" d="M-56.1,18.2l-9.3,28.5l14.3,4.6L-56.1,18.2z"/>
											</g>
										</g>
									</g>
								</g>
							</g>
						</g>
					</g>
				</g>
				
					<g transform="translate(345.000000, 195.000000) scale(-1, 1) translate(-345.000000, -195.000000) translate(270.000000, 0.000000)">
					<g>
						<g transform="translate(0.000000, 180.000000)">
							<g>
								<g>
									<path class="st0" d="M30,59l-9.3,28.5L35,92.2L30,59z"/>
									<g transform="translate(15.000000, 15.000000) scale(-1, 1) translate(-15.000000, -15.000000) ">
										<path class="st0" d="M0,59l-9.3,28.5L5,92.2L0,59z"/>
									</g>
								</g>
								<g>
									
										<g transform="translate(44.265848, 25.364745) rotate(72.000000) translate(-44.265848, -25.364745) translate(14.265848, 10.364745)">
										<g>
											<path class="st0" d="M86.1,18.2l-9.3,28.5l14.3,4.6L86.1,18.2z"/>
											<g transform="translate(15.000000, 15.000000) scale(-1, 1) translate(-15.000000, -15.000000) ">
												<path class="st0" d="M-56.1,18.2l-9.3,28.5l14.3,4.6L-56.1,18.2z"/>
											</g>
										</g>
									</g>
									
										<g transform="translate(38.816779, 42.135255) rotate(144.000000) translate(-38.816779, -42.135255) translate(8.816779, 27.135255)">
										<g>
											<path class="st0" d="M64.7-47.7l-9.3,28.5l14.3,4.6L64.7-47.7z"/>
											<g transform="translate(15.000000, 15.000000) scale(-1, 1) translate(-15.000000, -15.000000) ">
												<path class="st0" d="M-34.7-47.7l-9.3,28.5l14.3,4.6L-34.7-47.7z"/>
											</g>
										</g>
									</g>
								</g>
								<g transform="translate(30.000000, 30.000000) scale(-1, 1) translate(-30.000000, -30.000000) ">
									<g>
										
											<g transform="translate(44.265848, 25.364745) rotate(72.000000) translate(-44.265848, -25.364745) translate(14.265848, 10.364745)">
											<g>
												<path class="st0" d="M86.1,18.2l-9.3,28.5l14.3,4.6L86.1,18.2z"/>
												<g transform="translate(15.000000, 15.000000) scale(-1, 1) translate(-15.000000, -15.000000) ">
													<path class="st0" d="M-56.1,18.2l-9.3,28.5l14.3,4.6L-56.1,18.2z"/>
												</g>
											</g>
										</g>
										
											<g transform="translate(38.816779, 42.135255) rotate(144.000000) translate(-38.816779, -42.135255) translate(8.816779, 27.135255)">
											<g>
												<path class="st0" d="M64.7-47.7l-9.3,28.5l14.3,4.6L64.7-47.7z"/>
												<g transform="translate(15.000000, 15.000000) scale(-1, 1) translate(-15.000000, -15.000000) ">
													<path class="st0" d="M-34.7-47.7l-9.3,28.5l14.3,4.6L-34.7-47.7z"/>
												</g>
											</g>
										</g>
									</g>
								</g>
							</g>
						</g>
						
							<g transform="translate(120.000000, 54.115427) rotate(216.000000) translate(-120.000000, -54.115427) translate(90.000000, 24.115427)">
							<g>
								<g>
									<path class="st0" d="M-4.7-47.7l-9.3,28.5l14.3,4.6L-4.7-47.7z"/>
									<g transform="translate(15.000000, 15.000000) scale(-1, 1) translate(-15.000000, -15.000000) ">
										<path class="st0" d="M34.7-47.7l-9.3,28.5l14.3,4.6L34.7-47.7z"/>
									</g>
								</g>
								<g>
									
										<g transform="translate(44.265848, 25.364745) rotate(72.000000) translate(-44.265848, -25.364745) translate(14.265848, 10.364745)">
										<g>
											<path class="st0" d="M-26.1,18.2l-9.3,28.5l14.3,4.6L-26.1,18.2z"/>
											<g transform="translate(15.000000, 15.000000) scale(-1, 1) translate(-15.000000, -15.000000) ">
												<path class="st0" d="M56.1,18.2l-9.3,28.5l14.3,4.6L56.1,18.2z"/>
											</g>
										</g>
									</g>
									
										<g transform="translate(38.816779, 42.135255) rotate(144.000000) translate(-38.816779, -42.135255) translate(8.816779, 27.135255)">
										<g>
											<path class="st0" d="M30,59l-9.3,28.5L35,92.2L30,59z"/>
											<g transform="translate(15.000000, 15.000000) scale(-1, 1) translate(-15.000000, -15.000000) ">
												<path class="st0" d="M0,59l-9.3,28.5L5,92.2L0,59z"/>
											</g>
										</g>
									</g>
								</g>
								<g transform="translate(30.000000, 30.000000) scale(-1, 1) translate(-30.000000, -30.000000) ">
									<g>
										
											<g transform="translate(44.265848, 25.364745) rotate(72.000000) translate(-44.265848, -25.364745) translate(14.265848, 10.364745)">
											<g>
												<path class="st0" d="M-4.7-47.7l-9.3,28.5l14.3,4.6L-4.7-47.7z"/>
												<g transform="translate(15.000000, 15.000000) scale(-1, 1) translate(-15.000000, -15.000000) ">
													<path class="st0" d="M34.7-47.7l-9.3,28.5l14.3,4.6L34.7-47.7z"/>
												</g>
											</g>
										</g>
										
											<g transform="translate(38.816779, 42.135255) rotate(144.000000) translate(-38.816779, -42.135255) translate(8.816779, 27.135255)">
											<g>
												<path class="st0" d="M-26.1,18.2l-9.3,28.5l14.3,4.6L-26.1,18.2z"/>
												<g transform="translate(15.000000, 15.000000) scale(-1, 1) translate(-15.000000, -15.000000) ">
													<path class="st0" d="M56.1,18.2l-9.3,28.5l14.3,4.6L56.1,18.2z"/>
												</g>
											</g>
										</g>
									</g>
								</g>
							</g>
						</g>
						
							<g transform="translate(54.115427, 120.000000) rotate(144.000000) translate(-54.115427, -120.000000) translate(24.115427, 90.000000)">
							<g>
								<g>
									<path class="st0" d="M64.7-47.7l-9.3,28.5l14.3,4.6L64.7-47.7z"/>
									<g transform="translate(15.000000, 15.000000) scale(-1, 1) translate(-15.000000, -15.000000) ">
										<path class="st0" d="M-34.7-47.7l-9.3,28.5l14.3,4.6L-34.7-47.7z"/>
									</g>
								</g>
								<g>
									
										<g transform="translate(44.265848, 25.364745) rotate(72.000000) translate(-44.265848, -25.364745) translate(14.265848, 10.364745)">
										<g>
											<path class="st0" d="M-4.7-47.7l-9.3,28.5l14.3,4.6L-4.7-47.7z"/>
											<g transform="translate(15.000000, 15.000000) scale(-1, 1) translate(-15.000000, -15.000000) ">
												<path class="st0" d="M34.7-47.7l-9.3,28.5l14.3,4.6L34.7-47.7z"/>
											</g>
										</g>
									</g>
									
										<g transform="translate(38.816779, 42.135255) rotate(144.000000) translate(-38.816779, -42.135255) translate(8.816779, 27.135255)">
										<g>
											<path class="st0" d="M-26.1,18.2l-9.3,28.5l14.3,4.6L-26.1,18.2z"/>
											<g transform="translate(15.000000, 15.000000) scale(-1, 1) translate(-15.000000, -15.000000) ">
												<path class="st0" d="M56.1,18.2l-9.3,28.5l14.3,4.6L56.1,18.2z"/>
											</g>
										</g>
									</g>
								</g>
								<g transform="translate(30.000000, 30.000000) scale(-1, 1) translate(-30.000000, -30.000000) ">
									<g>
										
											<g transform="translate(44.265848, 25.364745) rotate(72.000000) translate(-44.265848, -25.364745) translate(14.265848, 10.364745)">
											<g>
												<path class="st0" d="M-26.1,18.2l-9.3,28.5l14.3,4.6L-26.1,18.2z"/>
												<g transform="translate(15.000000, 15.000000) scale(-1, 1) translate(-15.000000, -15.000000) ">
													<path class="st0" d="M56.1,18.2l-9.3,28.5l14.3,4.6L56.1,18.2z"/>
												</g>
											</g>
										</g>
										
											<g transform="translate(38.816779, 42.135255) rotate(144.000000) translate(-38.816779, -42.135255) translate(8.816779, 27.135255)">
											<g>
												<path class="st0" d="M30,59l-9.3,28.5L35,92.2L30,59z"/>
												<g transform="translate(15.000000, 15.000000) scale(-1, 1) translate(-15.000000, -15.000000) ">
													<path class="st0" d="M0,59l-9.3,28.5L5,92.2L0,59z"/>
												</g>
											</g>
										</g>
									</g>
								</g>
							</g>
						</g>
						
							<g transform="translate(54.115427, 300.000000) rotate(72.000000) translate(-54.115427, -300.000000) translate(24.115427, 270.000000)">
							<g>
								<g>
									<path class="st0" d="M86.1,18.2l-9.3,28.5l14.3,4.6L86.1,18.2z"/>
									<g transform="translate(15.000000, 15.000000) scale(-1, 1) translate(-15.000000, -15.000000) ">
										<path class="st0" d="M-56.1,18.2l-9.3,28.5l14.3,4.6L-56.1,18.2z"/>
									</g>
								</g>
								<g>
									
										<g transform="translate(44.265848, 25.364745) rotate(72.000000) translate(-44.265848, -25.364745) translate(14.265848, 10.364745)">
										<g>
											<path class="st0" d="M64.7-47.7l-9.3,28.5l14.3,4.6L64.7-47.7z"/>
											<g transform="translate(15.000000, 15.000000) scale(-1, 1) translate(-15.000000, -15.000000) ">
												<path class="st0" d="M-34.7-47.7l-9.3,28.5l14.3,4.6L-34.7-47.7z"/>
											</g>
										</g>
									</g>
									
										<g transform="translate(38.816779, 42.135255) rotate(144.000000) translate(-38.816779, -42.135255) translate(8.816779, 27.135255)">
										<g>
											<path class="st0" d="M-4.7-47.7l-9.3,28.5l14.3,4.6L-4.7-47.7z"/>
											<g transform="translate(15.000000, 15.000000) scale(-1, 1) translate(-15.000000, -15.000000) ">
												<path class="st0" d="M34.7-47.7l-9.3,28.5l14.3,4.6L34.7-47.7z"/>
											</g>
										</g>
									</g>
								</g>
								<g transform="translate(30.000000, 30.000000) scale(-1, 1) translate(-30.000000, -30.000000) ">
									<g>
										
											<g transform="translate(44.265848, 25.364745) rotate(72.000000) translate(-44.265848, -25.364745) translate(14.265848, 10.364745)">
											<g>
												<path class="st0" d="M30,59l-9.3,28.5L35,92.2L30,59z"/>
												<g transform="translate(15.000000, 15.000000) scale(-1, 1) translate(-15.000000, -15.000000) ">
													<path class="st0" d="M0,59l-9.3,28.5L5,92.2L0,59z"/>
												</g>
											</g>
										</g>
										
											<g transform="translate(38.816779, 42.135255) rotate(144.000000) translate(-38.816779, -42.135255) translate(8.816779, 27.135255)">
											<g>
												<path class="st0" d="M86.1,18.2l-9.3,28.5l14.3,4.6L86.1,18.2z"/>
												<g transform="translate(15.000000, 15.000000) scale(-1, 1) translate(-15.000000, -15.000000) ">
													<path class="st0" d="M-56.1,18.2l-9.3,28.5l14.3,4.6L-56.1,18.2z"/>
												</g>
											</g>
										</g>
									</g>
								</g>
							</g>
						</g>
						
							<g transform="translate(120.000000, 365.884573) rotate(72.000000) translate(-120.000000, -365.884573) translate(90.000000, 335.884573)">
							<g>
								<g>
									<path class="st0" d="M86.1,18.2l-9.3,28.5l14.3,4.6L86.1,18.2z"/>
									<g transform="translate(15.000000, 15.000000) scale(-1, 1) translate(-15.000000, -15.000000) ">
										<path class="st0" d="M-56.1,18.2l-9.3,28.5l14.3,4.6L-56.1,18.2z"/>
									</g>
								</g>
								<g>
									
										<g transform="translate(44.265848, 25.364745) rotate(72.000000) translate(-44.265848, -25.364745) translate(14.265848, 10.364745)">
										<g>
											<path class="st0" d="M64.7-47.7l-9.3,28.5l14.3,4.6L64.7-47.7z"/>
											<g transform="translate(15.000000, 15.000000) scale(-1, 1) translate(-15.000000, -15.000000) ">
												<path class="st0" d="M-34.7-47.7l-9.3,28.5l14.3,4.6L-34.7-47.7z"/>
											</g>
										</g>
									</g>
									
										<g transform="translate(38.816779, 42.135255) rotate(144.000000) translate(-38.816779, -42.135255) translate(8.816779, 27.135255)">
										<g>
											<path class="st0" d="M-4.7-47.7l-9.3,28.5l14.3,4.6L-4.7-47.7z"/>
											<g transform="translate(15.000000, 15.000000) scale(-1, 1) translate(-15.000000, -15.000000) ">
												<path class="st0" d="M34.7-47.7l-9.3,28.5l14.3,4.6L34.7-47.7z"/>
											</g>
										</g>
									</g>
								</g>
								<g transform="translate(30.000000, 30.000000) scale(-1, 1) translate(-30.000000, -30.000000) ">
									<g>
										
											<g transform="translate(44.265848, 25.364745) rotate(72.000000) translate(-44.265848, -25.364745) translate(14.265848, 10.364745)">
											<g>
												<path class="st0" d="M30,59l-9.3,28.5L35,92.2L30,59z"/>
												<g transform="translate(15.000000, 15.000000) scale(-1, 1) translate(-15.000000, -15.000000) ">
													<path class="st0" d="M0,59l-9.3,28.5L5,92.2L0,59z"/>
												</g>
											</g>
										</g>
										
											<g transform="translate(38.816779, 42.135255) rotate(144.000000) translate(-38.816779, -42.135255) translate(8.816779, 27.135255)">
											<g>
												<path class="st0" d="M86.1,18.2l-9.3,28.5l14.3,4.6L86.1,18.2z"/>
												<g transform="translate(15.000000, 15.000000) scale(-1, 1) translate(-15.000000, -15.000000) ">
													<path class="st0" d="M-56.1,18.2l-9.3,28.5l14.3,4.6L-56.1,18.2z"/>
												</g>
											</g>
										</g>
									</g>
								</g>
							</g>
						</g>
					</g>
				</g>
			</g>
		</g>
	</g>
	<g>
		<path class="st0" d="M171.5,231.9v67.7c0,2-0.6,2.7-2.7,2.7h-4.5c-2.1,0-2.7-0.7-2.7-2.7v-58.4l-18.4,10.2c-2.1,1.2-3.1,0.8-4-0.9
			l-2.1-3.6c-0.9-1.8-0.5-2.7,1.2-3.7l22.8-12.9c1.4-0.9,2.2-1.1,3.8-1.1h3.8C170.9,229.2,171.5,229.9,171.5,231.9z"/>
		<path class="st0" d="M189.3,308.4h-4.4c-2,0-2.3-0.7-1.6-2.3l27.8-74.8c0.6-1.8,1.4-2.3,3.3-2.3h4.4c1.9,0,2.3,0.7,1.6,2.3
			l-27.8,74.8C191.9,307.9,191.1,308.4,189.3,308.4z"/>
		<path class="st0" d="M255.6,227.6c15,0,24.2,10.5,24.2,22.5c0,15.5-9.3,21-27.7,28.2c-6.1,2.4-13.3,4.8-13.3,11.6v3h37.4
			c2.1,0,2.7,0.7,2.7,2.7v3.9c0,2-0.6,2.7-2.7,2.7h-45c-2.1,0-2.8-0.7-2.8-2.8V292c0-13.9,10.4-18.5,20.9-22.6
			c10.1-3.9,20.1-7.3,20.1-18.7c0-7.5-5.7-13.7-14.1-13.7c-8.7,0-13.7,3.7-17,10.9c-0.8,2-1.5,2.4-3.4,1.7l-4.4-1.6
			c-1.9-0.6-2.4-1.5-1.6-3.4C233.1,234,241.2,227.6,255.6,227.6z"/>
	</g>
</g>
</svg>
