<svg height="1024" width="640" xmlns="http://www.w3.org/2000/svg">
  <path fill="#17171e" d="M320 0c-177 0-320 143-320 320s160 416 320 704c160-288 320-527 320-704s-143-320-320-320z m0 448c-71 0-128-57-128-128s57-128 128-128 128 57 128 128-57 128-128 128z" />
</svg>
