<svg id="Layer_1" data-name="Layer 1" xmlns="http://www.w3.org/2000/svg" viewBox="0 0 88.43 69.73">
    <title>sostav</title>
    <path fill="#2a51b5" d="M71.63,82.33H21.93a1.48,1.48,0,0,1-1.48-1.48V45.09l-8.1,3.64a1.48,1.48,0,0,1-2-.73L2.7,31.37a1.48,1.48,0,0,1,.71-2A87,87,0,0,0,19.73,18.8c6.65-5.6,19.77-6.2,25.1-6.2,1.17,0,1.9,0,2,0s.74,0,1.9,0c5.33,0,18.45.6,25.1,6.2A87,87,0,0,0,90.15,29.4a1.49,1.49,0,0,1,.71,2L83.17,48a1.48,1.48,0,0,1-2,.73l-8.09-3.64V80.85A1.48,1.48,0,0,1,71.63,82.33Zm-48.22-3H70.15V42.8a1.48,1.48,0,0,1,2.09-1.35l8.85,4,6.47-14A89,89,0,0,1,71.93,21.07C65.86,16,52.65,15.56,48.74,15.56c-1.17,0-1.87,0-1.89,0s-.85,0-2,0c-3.91,0-17.12.4-23.19,5.51A89,89,0,0,1,6,31.42l6.47,14,8.85-4a1.48,1.48,0,0,1,2.09,1.35V79.36Z"
          transform="translate(-2.57 -12.6)"/>
    <path fill="#2a51b5" d="M62.27,33.58H54a1.48,1.48,0,0,1,0-3h8.3a1.48,1.48,0,1,1,0,3Z" transform="translate(-2.57 -12.6)"/>
    <path fill="#2a51b5" d="M62.27,38H54a1.48,1.48,0,0,1,0-3h8.3a1.48,1.48,0,0,1,0,3Z" transform="translate(-2.57 -12.6)"/>
    <path fill="#2a51b5" d="M46.8,28a1.48,1.48,0,0,1-.51-.09c-5.66-2.09-9.13-4.84-10.32-8.19A7.19,7.19,0,0,1,36.33,14a1.48,1.48,0,0,1,2.56,1.5,4.2,4.2,0,0,0-.11,3.36c.87,2.34,3.66,4.47,8.08,6.17,2.31-.69,7.25-2.7,8.43-5.63a4.17,4.17,0,0,0-.57-3.87A1.48,1.48,0,0,1,57.27,14a7,7,0,0,1,.78,6.52C56,25.63,47.54,27.9,47.18,28A1.5,1.5,0,0,1,46.8,28Z"
          transform="translate(-2.57 -12.6)"/>
    <path fill="#2a51b5" d="M71.63,75.78H21.93a1.48,1.48,0,1,1,0-3H71.63a1.48,1.48,0,1,1,0,3Z" transform="translate(-2.57 -12.6)"/>
</svg>